(module Button_Switch_THT:SW_0000 (layer F.Cu) (tedit 6259F372)
  (descr "MEC 5G single pole normally-open tactile switch https://cdn.sos.sk/productdata/80/f6/aabf7be6/5gth9358222.pdf")
  (tags "switch normally-open pushbutton push-button")
  (fp_text reference REF** (at 0.475 -1.85 180) (layer F.SilkS)
    (effects (font (size 1 1) (thickness 0.15)))
  )
  (fp_text value SW_0000 (at 1.3 6.8 180) (layer F.Fab)
    (effects (font (size 1 1) (thickness 0.15)))
  )
  (fp_line (start -1.6 -0.6) (end -1.6 -0.5) (layer F.Fab) (width 0.1))
  (fp_line (start -1.6 5.6) (end -1.6 -0.5) (layer F.Fab) (width 0.1))
  (fp_line (start 11.9 5.6) (end -1.6 5.6) (layer F.Fab) (width 0.1))
  (fp_line (start 11.9 -0.6) (end 11.9 5.6) (layer F.Fab) (width 0.1))
  (fp_line (start -1.6 -0.6) (end 11.9 -0.6) (layer F.Fab) (width 0.1))
  (fp_line (start -2 6) (end -2 -1) (layer F.CrtYd) (width 0.05))
  (fp_line (start 12.3 6) (end -2 6) (layer F.CrtYd) (width 0.05))
  (fp_line (start 12.3 -1) (end 12.3 6) (layer F.CrtYd) (width 0.05))
  (fp_line (start -2 -1) (end 12.3 -1) (layer F.CrtYd) (width 0.05))
  (fp_line (start -1.8 -0.8) (end -1.8 1.1) (layer F.SilkS) (width 0.12))
  (fp_line (start 11.4 -0.8) (end -1.8 -0.8) (layer F.SilkS) (width 0.12))
  (fp_line (start -1.8 5.8) (end -1.8 1.1) (layer F.SilkS) (width 0.12))
  (fp_line (start 0 5.8) (end -1.8 5.8) (layer F.SilkS) (width 0.12))
  (fp_line (start 12.1 5.8) (end 0 5.8) (layer F.SilkS) (width 0.12))
  (fp_line (start 12.1 -0.8) (end 12.1 5.8) (layer F.SilkS) (width 0.12))
  (fp_line (start 11.4 -0.8) (end 12.1 -0.8) (layer F.SilkS) (width 0.12))
  (fp_line (start 12.1 3) (end 12.1 0.2) (layer F.SilkS) (width 0.12))
  (fp_line (start 12.1 4) (end 12.1 3) (layer F.SilkS) (width 0.12))
  (fp_text user %R (at 2.1 0.2 180) (layer F.Fab)
    (effects (font (size 1 1) (thickness 0.15)))
  )
  (pad 1 thru_hole rect (at 1 2.5 180) (size 2 3) (drill oval 0.9 2.2) (layers *.Cu *.Mask))
  (pad 2 thru_hole rect (at 5.7 2.5 180) (size 2 3) (drill oval 0.9 2.2) (layers *.Cu *.Mask))
  (pad 3 thru_hole rect (at 10.4 2.5 180) (size 2 3) (drill oval 0.9 2.2) (layers *.Cu *.Mask))
  (model ${KISYS3DMOD}/Button_Switch_THT.3dshapes/SW_MEC_5GTH9.wrl
    (at (xyz 0 0 0))
    (scale (xyz 1 1 1))
    (rotate (xyz 0 0 0))
  )
)
