(kicad_sch (version 20211123) (generator eeschema)

  (uuid e3d4a325-fcd2-41f1-b616-ad138cd20f0d)

  (paper "A5")

  (lib_symbols
    (symbol "Device:LED" (pin_numbers hide) (pin_names (offset 1.016) hide) (in_bom yes) (on_board yes)
      (property "Reference" "D" (id 0) (at 0 2.54 0)
        (effects (font (size 1.27 1.27)))
      )
      (property "Value" "LED" (id 1) (at 0 -2.54 0)
        (effects (font (size 1.27 1.27)))
      )
      (property "Footprint" "" (id 2) (at 0 0 0)
        (effects (font (size 1.27 1.27)) hide)
      )
      (property "Datasheet" "~" (id 3) (at 0 0 0)
        (effects (font (size 1.27 1.27)) hide)
      )
      (property "ki_keywords" "LED diode" (id 4) (at 0 0 0)
        (effects (font (size 1.27 1.27)) hide)
      )
      (property "ki_description" "Light emitting diode" (id 5) (at 0 0 0)
        (effects (font (size 1.27 1.27)) hide)
      )
      (property "ki_fp_filters" "LED* LED_SMD:* LED_THT:*" (id 6) (at 0 0 0)
        (effects (font (size 1.27 1.27)) hide)
      )
      (symbol "LED_0_1"
        (polyline
          (pts
            (xy -1.27 -1.27)
            (xy -1.27 1.27)
          )
          (stroke (width 0.254) (type default) (color 0 0 0 0))
          (fill (type none))
        )
        (polyline
          (pts
            (xy -1.27 0)
            (xy 1.27 0)
          )
          (stroke (width 0) (type default) (color 0 0 0 0))
          (fill (type none))
        )
        (polyline
          (pts
            (xy 1.27 -1.27)
            (xy 1.27 1.27)
            (xy -1.27 0)
            (xy 1.27 -1.27)
          )
          (stroke (width 0.254) (type default) (color 0 0 0 0))
          (fill (type none))
        )
        (polyline
          (pts
            (xy -3.048 -0.762)
            (xy -4.572 -2.286)
            (xy -3.81 -2.286)
            (xy -4.572 -2.286)
            (xy -4.572 -1.524)
          )
          (stroke (width 0) (type default) (color 0 0 0 0))
          (fill (type none))
        )
        (polyline
          (pts
            (xy -1.778 -0.762)
            (xy -3.302 -2.286)
            (xy -2.54 -2.286)
            (xy -3.302 -2.286)
            (xy -3.302 -1.524)
          )
          (stroke (width 0) (type default) (color 0 0 0 0))
          (fill (type none))
        )
      )
      (symbol "LED_1_1"
        (pin passive line (at -3.81 0 0) (length 2.54)
          (name "K" (effects (font (size 1.27 1.27))))
          (number "1" (effects (font (size 1.27 1.27))))
        )
        (pin passive line (at 3.81 0 180) (length 2.54)
          (name "A" (effects (font (size 1.27 1.27))))
          (number "2" (effects (font (size 1.27 1.27))))
        )
      )
    )
    (symbol "Device:R" (pin_numbers hide) (pin_names (offset 0)) (in_bom yes) (on_board yes)
      (property "Reference" "R" (id 0) (at 2.032 0 90)
        (effects (font (size 1.27 1.27)))
      )
      (property "Value" "R" (id 1) (at 0 0 90)
        (effects (font (size 1.27 1.27)))
      )
      (property "Footprint" "" (id 2) (at -1.778 0 90)
        (effects (font (size 1.27 1.27)) hide)
      )
      (property "Datasheet" "~" (id 3) (at 0 0 0)
        (effects (font (size 1.27 1.27)) hide)
      )
      (property "ki_keywords" "R res resistor" (id 4) (at 0 0 0)
        (effects (font (size 1.27 1.27)) hide)
      )
      (property "ki_description" "Resistor" (id 5) (at 0 0 0)
        (effects (font (size 1.27 1.27)) hide)
      )
      (property "ki_fp_filters" "R_*" (id 6) (at 0 0 0)
        (effects (font (size 1.27 1.27)) hide)
      )
      (symbol "R_0_1"
        (rectangle (start -1.016 -2.54) (end 1.016 2.54)
          (stroke (width 0.254) (type default) (color 0 0 0 0))
          (fill (type none))
        )
      )
      (symbol "R_1_1"
        (pin passive line (at 0 3.81 270) (length 1.27)
          (name "~" (effects (font (size 1.27 1.27))))
          (number "1" (effects (font (size 1.27 1.27))))
        )
        (pin passive line (at 0 -3.81 90) (length 1.27)
          (name "~" (effects (font (size 1.27 1.27))))
          (number "2" (effects (font (size 1.27 1.27))))
        )
      )
    )
    (symbol "Switch:SW_SPDT" (pin_names (offset 0) hide) (in_bom yes) (on_board yes)
      (property "Reference" "SW" (id 0) (at 0 4.318 0)
        (effects (font (size 1.27 1.27)))
      )
      (property "Value" "SW_SPDT" (id 1) (at 0 -5.08 0)
        (effects (font (size 1.27 1.27)))
      )
      (property "Footprint" "" (id 2) (at 0 0 0)
        (effects (font (size 1.27 1.27)) hide)
      )
      (property "Datasheet" "~" (id 3) (at 0 0 0)
        (effects (font (size 1.27 1.27)) hide)
      )
      (property "ki_keywords" "switch single-pole double-throw spdt ON-ON" (id 4) (at 0 0 0)
        (effects (font (size 1.27 1.27)) hide)
      )
      (property "ki_description" "Switch, single pole double throw" (id 5) (at 0 0 0)
        (effects (font (size 1.27 1.27)) hide)
      )
      (symbol "SW_SPDT_0_0"
        (circle (center -2.032 0) (radius 0.508)
          (stroke (width 0) (type default) (color 0 0 0 0))
          (fill (type none))
        )
        (circle (center 2.032 -2.54) (radius 0.508)
          (stroke (width 0) (type default) (color 0 0 0 0))
          (fill (type none))
        )
      )
      (symbol "SW_SPDT_0_1"
        (polyline
          (pts
            (xy -1.524 0.254)
            (xy 1.651 2.286)
          )
          (stroke (width 0) (type default) (color 0 0 0 0))
          (fill (type none))
        )
        (circle (center 2.032 2.54) (radius 0.508)
          (stroke (width 0) (type default) (color 0 0 0 0))
          (fill (type none))
        )
      )
      (symbol "SW_SPDT_1_1"
        (pin passive line (at 5.08 2.54 180) (length 2.54)
          (name "A" (effects (font (size 1.27 1.27))))
          (number "1" (effects (font (size 1.27 1.27))))
        )
        (pin passive line (at -5.08 0 0) (length 2.54)
          (name "B" (effects (font (size 1.27 1.27))))
          (number "2" (effects (font (size 1.27 1.27))))
        )
        (pin passive line (at 5.08 -2.54 180) (length 2.54)
          (name "C" (effects (font (size 1.27 1.27))))
          (number "3" (effects (font (size 1.27 1.27))))
        )
      )
    )
  )

  (junction (at 100.33 52.07) (diameter 0) (color 0 0 0 0)
    (uuid ed9aeb9f-f7a8-44ee-8cfd-bf80c714df99)
  )

  (wire (pts (xy 100.33 55.88) (xy 100.33 52.07))
    (stroke (width 0) (type default) (color 0 0 0 0))
    (uuid 4325a689-a223-43a2-be3b-cc8b64910880)
  )
  (wire (pts (xy 110.49 52.07) (xy 100.33 52.07))
    (stroke (width 0) (type default) (color 0 0 0 0))
    (uuid 66e7975b-3191-435a-aa82-bccc43130c27)
  )
  (wire (pts (xy 100.33 63.5) (xy 100.33 67.31))
    (stroke (width 0) (type default) (color 0 0 0 0))
    (uuid 8b5ecd30-0b9e-456a-bf2c-9c6303125caa)
  )
  (wire (pts (xy 100.33 52.07) (xy 97.79 52.07))
    (stroke (width 0) (type default) (color 0 0 0 0))
    (uuid 909d2aa0-ae24-4135-84a0-93f999e425c0)
  )
  (wire (pts (xy 81.28 54.61) (xy 87.63 54.61))
    (stroke (width 0) (type default) (color 0 0 0 0))
    (uuid aa812761-84e9-4c21-b7ef-aa47bf22fb19)
  )
  (wire (pts (xy 81.28 49.53) (xy 87.63 49.53))
    (stroke (width 0) (type default) (color 0 0 0 0))
    (uuid f29d3bc1-409b-411f-995c-2a0cd6846307)
  )

  (hierarchical_label "GND" (shape input) (at 100.33 74.93 270)
    (effects (font (size 1.27 1.27)) (justify right))
    (uuid 35c76052-f36e-4321-96ea-30666fefc742)
  )
  (hierarchical_label "GND" (shape input) (at 81.28 54.61 180)
    (effects (font (size 1.27 1.27)) (justify right))
    (uuid 8d06140b-977e-43a0-b7b7-c189957230a4)
  )
  (hierarchical_label "VCC" (shape input) (at 81.28 49.53 180)
    (effects (font (size 1.27 1.27)) (justify right))
    (uuid ee1a2122-d2e8-4fe6-a234-19bd04d0418e)
  )
  (hierarchical_label "OUT" (shape output) (at 110.49 52.07 0)
    (effects (font (size 1.27 1.27)) (justify left))
    (uuid f5f9c336-97f6-4d32-b136-a988d8a87705)
  )

  (symbol (lib_id "Switch:SW_SPDT") (at 92.71 52.07 0) (mirror y) (unit 1)
    (in_bom yes) (on_board yes)
    (uuid 3ff55376-cebf-4b57-8a12-d255c5dec7aa)
    (property "Reference" "SW1" (id 0) (at 92.71 44.831 0))
    (property "Value" "SW_SPDT" (id 1) (at 92.71 47.1424 0))
    (property "Footprint" "Button_Switch_THT:SW_0000" (id 2) (at 92.71 52.07 0)
      (effects (font (size 1.27 1.27)) hide)
    )
    (property "Datasheet" "~" (id 3) (at 92.71 52.07 0)
      (effects (font (size 1.27 1.27)) hide)
    )
    (property "Spice_Primitive" "R" (id 4) (at 92.71 52.07 0)
      (effects (font (size 1.27 1.27)) hide)
    )
    (property "Spice_Model" "1" (id 5) (at 92.71 52.07 0)
      (effects (font (size 1.27 1.27)) hide)
    )
    (property "Spice_Netlist_Enabled" "N" (id 6) (at 92.71 52.07 0)
      (effects (font (size 1.27 1.27)) hide)
    )
    (pin "1" (uuid 9ee65c89-d2ae-47eb-9e84-5b2a2795962e))
    (pin "2" (uuid bd84c44c-e029-4eaf-8718-6ef47ab12ace))
    (pin "3" (uuid 3e07fcf6-8c0e-4228-9068-4e903a6a1de4))
  )

  (symbol (lib_id "Device:LED") (at 100.33 59.69 90) (unit 1)
    (in_bom yes) (on_board yes)
    (uuid 75624972-bfb7-4a32-a70b-1d513c36caea)
    (property "Reference" "D1" (id 0) (at 103.3272 58.6994 90)
      (effects (font (size 1.27 1.27)) (justify right))
    )
    (property "Value" "LED" (id 1) (at 103.3272 61.0108 90)
      (effects (font (size 1.27 1.27)) (justify right))
    )
    (property "Footprint" "LED_THT:LED_D5.0mm" (id 2) (at 100.33 59.69 0)
      (effects (font (size 1.27 1.27)) hide)
    )
    (property "Datasheet" "~" (id 3) (at 100.33 59.69 0)
      (effects (font (size 1.27 1.27)) hide)
    )
    (pin "1" (uuid 8207d24e-8c14-4320-96ed-1fb00abe3a69))
    (pin "2" (uuid 706c68e7-b84a-411a-8fbe-508383342e7d))
  )

  (symbol (lib_id "Device:R") (at 100.33 71.12 0) (unit 1)
    (in_bom yes) (on_board yes)
    (uuid d1884321-8bb5-436b-abb6-bbb1a151ad6d)
    (property "Reference" "R13" (id 0) (at 95.0722 71.12 90))
    (property "Value" "150" (id 1) (at 97.3836 71.12 90))
    (property "Footprint" "Resistor_THT:R_Axial_DIN0207_L6.3mm_D2.5mm_P10.16mm_Horizontal" (id 2) (at 98.552 71.12 90)
      (effects (font (size 1.27 1.27)) hide)
    )
    (property "Datasheet" "~" (id 3) (at 100.33 71.12 0)
      (effects (font (size 1.27 1.27)) hide)
    )
    (pin "1" (uuid 8684153f-745c-4e85-aaa8-6005369dc472))
    (pin "2" (uuid 5b6faa63-26af-4991-a473-b557c58efbfd))
  )
)
