<?xml version="1.0" encoding="UTF-8" standalone="no"?>
<svg
   inkscape:export-ydpi="583.93054"
   inkscape:export-xdpi="583.93054"
   inkscape:export-filename="D:\Reszta\PROJEKTY\mikrobi-logo\zebatka-negatyw-tlo-kontur.png"
   inkscape:version="1.1.2 (b8e25be833, 2022-02-05)"
   sodipodi:docname="logo-PCB-poziome.svg"
   id="svg8"
   version="1.1"
   viewBox="0 0 34.949212 9.9999978"
   height="10mm"
   width="34.949215mm"
   xmlns:inkscape="http://www.inkscape.org/namespaces/inkscape"
   xmlns:sodipodi="http://sodipodi.sourceforge.net/DTD/sodipodi-0.dtd"
   xmlns="http://www.w3.org/2000/svg"
   xmlns:svg="http://www.w3.org/2000/svg"
   xmlns:rdf="http://www.w3.org/1999/02/22-rdf-syntax-ns#"
   xmlns:cc="http://creativecommons.org/ns#"
   xmlns:dc="http://purl.org/dc/elements/1.1/">
  <defs
     id="defs2">
    <inkscape:path-effect
       effect="copy_rotate"
       starting_point="46.680617,46.680601"
       origin="52.499998,52.499982"
       id="path-effect1774"
       is_visible="true"
       lpeversion="1"
       method="normal"
       num_copies="12"
       starting_angle="135"
       rotation_angle="30"
       gap="0"
       copies_to_360="true"
       mirror_copies="false"
       split_items="false" />
    <inkscape:path-effect
       effect="copy_rotate"
       starting_point="46.680617,46.680601"
       origin="52.499998,52.499982"
       id="path-effect1667"
       is_visible="true"
       lpeversion="1"
       method="normal"
       num_copies="12"
       starting_angle="135"
       rotation_angle="30"
       gap="0"
       copies_to_360="true"
       mirror_copies="false"
       split_items="false" />
    <inkscape:path-effect
       effect="copy_rotate"
       starting_point="0,0"
       origin="-7.5000038,52.499982"
       id="path-effect1665"
       is_visible="true"
       lpeversion="1"
       method="normal"
       num_copies="6"
       starting_angle="0"
       rotation_angle="60"
       gap="-0.01"
       copies_to_360="true"
       mirror_copies="false"
       split_items="false" />
    <inkscape:path-effect
       effect="offset"
       id="path-effect1000"
       is_visible="true"
       lpeversion="1"
       linejoin_type="miter"
       unit="mm"
       offset="9.6"
       miter_limit="4"
       attempt_force_join="true"
       update_on_knot_move="true" />
    <style
       id="style1344">.a{fill:#fff;}.b{fill:#003c7d;}</style>
  </defs>
  <sodipodi:namedview
     id="base"
     pagecolor="#a6a6a6"
     bordercolor="#666666"
     borderopacity="1.0"
     inkscape:pageopacity="0"
     inkscape:pageshadow="2"
     inkscape:zoom="5.6568542"
     inkscape:cx="83.350213"
     inkscape:cy="31.643029"
     inkscape:document-units="mm"
     inkscape:current-layer="g1143"
     inkscape:document-rotation="0"
     showgrid="true"
     inkscape:window-width="1920"
     inkscape:window-height="1057"
     inkscape:window-x="-8"
     inkscape:window-y="-8"
     inkscape:window-maximized="1"
     inkscape:snap-center="true"
     inkscape:snap-grids="true"
     inkscape:object-paths="true"
     inkscape:snap-smooth-nodes="true"
     inkscape:snap-bbox="true"
     inkscape:bbox-paths="true"
     inkscape:bbox-nodes="true"
     inkscape:snap-bbox-edge-midpoints="true"
     inkscape:snap-bbox-midpoints="true"
     inkscape:snap-intersection-paths="true"
     inkscape:snap-midpoints="true"
     inkscape:snap-object-midpoints="true"
     inkscape:snap-text-baseline="true"
     inkscape:snap-page="false"
     inkscape:snap-nodes="false"
     inkscape:object-nodes="true"
     inkscape:snap-others="false"
     inkscape:snap-global="true"
     inkscape:pagecheckerboard="false">
    <inkscape:grid
       type="xygrid"
       id="grid875"
       units="mm"
       spacingx="1"
       spacingy="1"
       visible="true"
       originx="-1.5323653"
       originy="-0.99999926"
       empspacing="10"
       dotted="true" />
  </sodipodi:namedview>
  <metadata
     id="metadata5">
    <rdf:RDF>
      <cc:Work
         rdf:about="">
        <dc:format>image/svg+xml</dc:format>
        <dc:type
           rdf:resource="http://purl.org/dc/dcmitype/StillImage" />
      </cc:Work>
    </rdf:RDF>
  </metadata>
  <g
     inkscape:groupmode="layer"
     id="g8500"
     inkscape:label="logo-final"
     transform="translate(23.71532,54.246217)"
     style="display:inline">
    <g
       id="g1143"
       transform="matrix(0.10204082,0,0,0.10204082,-21.295389,-48.710889)"
       style="stroke-width:9.8">
      <g
         id="g3447"
         style="stroke-width:9.8">
        <path
           id="path1401-9"
           style="color:#000000;font-style:normal;font-variant:normal;font-weight:normal;font-stretch:normal;font-size:medium;line-height:normal;font-family:sans-serif;font-variant-ligatures:normal;font-variant-position:normal;font-variant-caps:normal;font-variant-numeric:normal;font-variant-alternates:normal;font-variant-east-asian:normal;font-feature-settings:normal;font-variation-settings:normal;text-indent:0;text-align:start;text-decoration:none;text-decoration-line:none;text-decoration-style:solid;text-decoration-color:#000000;letter-spacing:normal;word-spacing:normal;text-transform:none;writing-mode:lr-tb;direction:ltr;text-orientation:mixed;dominant-baseline:auto;baseline-shift:baseline;text-anchor:start;white-space:normal;shape-padding:0;shape-margin:0;inline-size:0;clip-rule:nonzero;display:inline;overflow:visible;visibility:visible;isolation:auto;mix-blend-mode:normal;color-interpolation:sRGB;color-interpolation-filters:linearRGB;solid-color:#000000;solid-opacity:1;vector-effect:none;fill:#000000;fill-opacity:1;fill-rule:nonzero;stroke:none;stroke-width:7.5099;stroke-linecap:round;stroke-linejoin:round;stroke-miterlimit:13.6;stroke-dasharray:none;stroke-dashoffset:0;stroke-opacity:1;paint-order:fill markers stroke;color-rendering:auto;image-rendering:auto;shape-rendering:auto;text-rendering:auto;enable-background:accumulate;stop-color:#000000"
           d="m 24.752312,-53.713852 c -2.065502,-6.9e-5 -4.130652,0.134144 -6.182835,0.404317 a 1.0395373,1.0395373 0 0 0 -0.904079,1.039916 l 0.03211,3.824623 a 43.769887,43.769887 0 0 0 -8.4400695,2.262376 l -1.8790416,-3.33001 a 1.0395373,1.0395373 0 0 0 -1.3020657,-0.448671 c -3.8246225,1.584208 -7.4249058,3.662715 -10.7091824,6.182835 a 1.0395373,1.0395373 0 0 0 -0.2633451,1.351569 l 1.9408222,3.296346 a 43.769887,43.769887 0 0 0 -6.1788731,6.180069 l -3.2919938,-1.945183 a 1.0395373,1.0395373 0 0 0 -1.352757,0.262158 c -2.520143,3.284315 -4.598642,6.885785 -6.182835,10.71037 a 1.0395373,1.0395373 0 0 0 0.448672,1.302065 l 3.328033,1.88459 a 43.769887,43.769887 0 0 0 -2.260798,8.440067 l -3.822638,-0.03762 a 1.0395373,1.0395373 0 0 0 -1.041502,0.904081 c -0.540331,4.1042921 -0.540346,8.2613211 0,12.36567175 a 1.0395373,1.0395373 0 0 0 1.039916,0.90408015 l 3.825021,-0.032078 a 43.769887,43.769887 0 0 0 2.262376,8.4400671 l -3.330408,1.879047 a 1.0395373,1.0395373 0 0 0 -0.448672,1.302067 c 1.584224,3.824663 3.662753,7.424549 6.182835,10.708783 a 1.0395373,1.0395373 0 0 0 1.35157,0.26374 l 3.2967442,-1.940427 a 43.769887,43.769887 0 0 0 6.17967,6.178481 l -1.9451825,3.291597 a 1.0395373,1.0395373 0 0 0 0.2621573,1.353152 c 3.2843149,2.520148 6.885786,4.59864 10.7103702,6.182835 A 1.0395373,1.0395373 0 0 0 7.3783959,39.019578 L 9.2633764,35.69036 a 43.769887,43.769887 0 0 0 8.4396706,2.260795 l -0.03763,3.822643 a 1.0395373,1.0395373 0 0 0 0.904087,1.041494 c 4.10429,0.540338 8.261318,0.540358 12.365669,0 a 1.0395373,1.0395373 0 0 0 0.904079,-1.040307 l -0.03211,-3.824622 a 43.769887,43.769887 0 0 0 8.44007,-2.26238 l 1.879041,3.330012 a 1.0395373,1.0395373 0 0 0 1.302066,0.449069 c 3.824641,-1.584192 7.424525,-3.662725 10.708787,-6.182835 a 1.0395373,1.0395373 0 0 0 0.263743,-1.351566 l -1.940822,-3.296748 a 43.769887,43.769887 0 0 0 6.179272,-6.179667 l 3.291204,1.945178 a 1.0395373,1.0395373 0 0 0 1.353148,-0.26374 c 2.520128,-3.284296 4.598642,-6.884192 6.182835,-10.708783 A 1.0395373,1.0395373 0 0 0 69.019008,12.126836 L 65.689786,10.24185 a 43.769887,43.769887 0 0 0 2.260798,-8.4408595 l 3.822634,0.038806 a 1.0395373,1.0395373 0 0 0 1.041495,-0.90408012 c 0.540315,-4.10426568 0.540354,-8.26129848 0,-12.36567138 a 1.0395373,1.0395373 0 0 0 -1.040307,-0.904081 l -3.824619,0.03208 a 43.769887,43.769887 0 0 0 -2.262775,-8.441252 l 3.329221,-1.877862 a 1.0395373,1.0395373 0 0 0 0.450258,-1.302065 c -1.584185,-3.824569 -3.662692,-7.424868 -6.182835,-10.709182 a 1.0395373,1.0395373 0 0 0 -1.35157,-0.263346 l -3.297143,1.940432 a 43.769887,43.769887 0 0 0 -6.179662,-6.179279 l 1.943987,-3.291197 a 1.0395373,1.0395373 0 0 0 -0.262157,-1.352757 c -3.284292,-2.520128 -6.884192,-4.598642 -10.708787,-6.182835 a 1.0395373,1.0395373 0 0 0 -1.302066,0.448671 l -1.884589,3.328033 a 43.769887,43.769887 0 0 0 -8.441258,-2.261189 l 0.03878,-3.822246 a 1.0395373,1.0395373 0 0 0 -0.904079,-1.041503 c -2.052137,-0.270165 -4.117333,-0.404248 -6.182835,-0.404317 z m 0,10.150813 a 38.315883,38.315883 0 0 1 38.315925,38.315921 38.315883,38.315883 0 0 1 -38.315925,38.31592 38.315883,38.315883 0 0 1 -38.315914,-38.31592 38.315883,38.315883 0 0 1 38.315914,-38.315921 z" />
        <path
           id="path1404-1"
           style="color:#000000;font-style:normal;font-variant:normal;font-weight:normal;font-stretch:normal;font-size:medium;line-height:normal;font-family:sans-serif;font-variant-ligatures:normal;font-variant-position:normal;font-variant-caps:normal;font-variant-numeric:normal;font-variant-alternates:normal;font-variant-east-asian:normal;font-feature-settings:normal;font-variation-settings:normal;text-indent:0;text-align:start;text-decoration:none;text-decoration-line:none;text-decoration-style:solid;text-decoration-color:#000000;letter-spacing:normal;word-spacing:normal;text-transform:none;writing-mode:lr-tb;direction:ltr;text-orientation:mixed;dominant-baseline:auto;baseline-shift:baseline;text-anchor:start;white-space:normal;shape-padding:0;shape-margin:0;inline-size:0;clip-rule:nonzero;display:inline;overflow:visible;visibility:visible;isolation:auto;mix-blend-mode:normal;color-interpolation:sRGB;color-interpolation-filters:linearRGB;solid-color:#000000;solid-opacity:1;vector-effect:none;fill:#000000;fill-opacity:1;fill-rule:nonzero;stroke:none;stroke-width:7.5099;stroke-linecap:round;stroke-linejoin:round;stroke-miterlimit:13.6;stroke-dasharray:none;stroke-dashoffset:0;stroke-opacity:1;paint-order:fill markers stroke;color-rendering:auto;image-rendering:auto;shape-rendering:auto;text-rendering:auto;enable-background:accumulate;stop-color:#000000"
           d="m 24.753035,-37.815633 a 1.9157941,1.9157941 0 0 0 -1.915878,1.915875 v 30.6528157 a 1.9157941,1.9157941 0 0 0 0.0031,0.1045452 c 0.05686,7.3357767 6.059258,13.3057891 13.407961,13.3057891 7.383747,0 13.41033,-6.0265812 13.41033,-13.4103343 0,-7.3837527 -6.026583,-13.4107307 -13.41033,-13.4107307 -3.746182,0 -7.141253,1.55356 -9.578986,4.046385 v -21.28847 a 1.9157941,1.9157941 0 0 0 -1.915871,-1.915875 z m 21.283316,14.18017 a 1.9157941,1.9157941 0 0 0 -1.655299,0.936948 1.9157941,1.9157941 0 0 0 0.668849,2.626705 c 0.623262,0.370069 1.222921,0.778553 1.794701,1.224054 a 1.9157941,1.9157941 0 0 0 2.689668,-0.333832 1.9157941,1.9157941 0 0 0 -0.333831,-2.689273 c -0.698844,-0.544503 -1.432509,-1.044598 -2.194267,-1.496903 a 1.9157941,1.9157941 0 0 0 -0.969821,-0.267699 z m -49.7284033,4.97779 a 1.9157941,1.9157941 0 0 0 -1.7467797,1.197521 c -1.5734249,3.889682 -2.3595764,7.9995514 -2.3732621,12.1043083 a 1.9157941,1.9157941 0 0 0 -0.0036,0.1089014 c 0,0.042754 0.00276,0.084857 0.00314,0.1275149 0.01938,4.94406392 1.161343,9.8743733 3.4155476,14.397971 C -0.23547296,17.629656 7.3109553,23.79761 16.323594,26.212538 A 1.9157941,1.9157941 0 0 0 18.67032,24.856615 1.9157941,1.9157941 0 0 0 17.315585,22.511073 C 9.3613149,20.379732 2.704842,14.939813 -0.96799602,7.5693847 -1.2262604,7.0511003 -1.4662711,6.5264179 -1.6914949,5.9968464 0.40932972,7.3646752 2.9116022,8.163392 5.5950091,8.163392 c 4.5521339,0 8.5861369,-2.2922133 11.0125209,-5.779305 0.691043,1.7786125 1.621766,3.4672296 2.781144,5.0130348 a 1.9157941,1.9157941 0 0 0 2.68215,0.3833328 1.9157941,1.9157941 0 0 0 0.383335,-2.6821448 C 20.2155,2.1135102 19.005737,-1.5159098 19.005737,-5.2469423 V -16.741798 a 1.9157942,1.9157942 0 0 0 -1.915871,-1.915875 1.9157942,1.9157942 0 0 0 -1.915878,1.915875 v 11.4726784 a 1.9157941,1.9157941 0 0 0 0,0.022177 c 0,5.31300951 -4.265968,9.5789804 -9.5789789,9.5789804 -5.2895001,0 -9.5398757,-4.22867421 -9.5773969,-9.5088873 -0.00892,-3.676614 0.6853539,-7.3611295 2.0952642,-10.8465935 a 1.9157941,1.9157941 0 0 0 -1.0581268,-2.493253 1.9157941,1.9157941 0 0 0 -0.6945934,-0.140977 1.9157941,1.9157941 0 0 0 -0.052271,0 z m 55.2625813,0.0024 a 1.9157941,1.9157941 0 0 0 -0.05188,8.43e-4 1.9157941,1.9157941 0 0 0 -1.092577,0.381749 1.9157941,1.9157941 0 0 0 -0.382937,2.682145 c 4.601148,6.1368266 4.601554,14.5508157 0,20.6873344 a 1.9157941,1.9157941 0 0 0 0.382937,2.682147 1.9157941,1.9157941 0 0 0 2.682142,-0.3829373 c 5.612787,-7.48506687 5.612289,-17.7987271 0,-25.2841681 a 1.9157941,1.9157941 0 0 0 -1.537685,-0.767062 z m -15.322644,3.829375 c 5.31301,0 9.578978,4.265971 9.578978,9.5789799 0,5.31300954 -4.265968,9.5789805 -9.578978,9.5789805 -5.313011,0 -9.578979,-4.26597096 -9.578979,-9.5789805 0,-5.3130089 4.265968,-9.5789799 9.578979,-9.5789799 z" />
        <path
           style="color:#000000;-inkscape-font-specification:'Barlow Semi Condensed,  Semi-Bold Semi-Condensed';fill:#000000;stroke-width:29.4;stroke-linecap:round;stroke-linejoin:round;-inkscape-stroke:none;paint-order:markers stroke fill"
           d="m 117.09674,-45.246217 c -5.2393,0 -8.71873,2.970403 -8.71873,7.78214 0,3.138091 1.59296,5.230582 3.64675,6.695029 1.04781,0.711301 2.38896,1.464321 4.10746,2.342989 3.01789,1.548126 4.19141,2.259543 4.98774,3.389256 0.37723,0.543936 0.58729,1.171221 0.58729,1.924362 0,2.175745 -1.50929,3.640313 -4.0661,3.640313 -2.80824,0 -4.61051,-1.673388 -4.61051,-4.058338 v -0.837255 c 0,-0.292888 -0.2095,-0.502111 -0.50292,-0.502111 h -3.77246 c -0.29328,0 -0.50294,0.209223 -0.50294,0.502111 v 1.088309 c 0,4.811744 3.64682,7.991754 9.17955,7.991751 5.53257,0 9.09518,-3.180211 9.09518,-8.033794 0,-2.970726 -1.50899,-4.93728 -3.39509,-6.234356 -0.96406,-0.62762 -2.43078,-1.548421 -4.4427,-2.678133 -4.35903,-2.259428 -5.36519,-2.886625 -5.53278,-5.271574 0,-2.217584 1.4669,-3.556826 3.85605,-3.556826 2.80815,0 4.48467,1.757472 4.48467,4.142424 v 0.795208 c 0,0.292892 0.20964,0.502108 0.50306,0.502108 h 3.81443 c 0.29343,0 0.50307,-0.209216 0.50307,-0.502108 v -0.878696 c 0,-4.895425 -3.73034,-8.242809 -9.22102,-8.242809 z m 159.98563,0 c -5.57449,0 -9.30463,3.681943 -9.30463,9.079458 v 11.799038 c 0,5.4812 3.73014,9.121504 9.30463,9.121504 5.61652,0 9.38897,-3.640304 9.38897,-9.121504 v -11.799038 c 0,-5.397515 -3.77245,-9.079458 -9.38897,-9.079458 z m -30.68092,0.293101 c -0.29344,0 -0.50293,0.209227 -0.50293,0.502108 v 28.326095 c 0,0.292889 0.20949,0.502111 0.50293,0.502111 h 3.85604 c 0.29343,0 0.50293,-0.209222 0.50293,-0.502111 v -11.924565 c 0,-0.125521 0.0838,-0.209011 0.20943,-0.209011 h 3.56303 c 0.0832,0 0.16742,0.04145 0.20936,0.166972 l 4.56838,12.050691 c 0.0838,0.292888 0.2938,0.418024 0.58723,0.418024 h 4.02326 c 0.2934,0 0.41939,-0.125333 0.41939,-0.334541 0,-0.125523 -1.6e-4,-0.209213 -0.0425,-0.251056 l -4.9455,-12.34319 c -0.0423,-0.125524 0,-0.251257 0.12571,-0.293098 2.89205,-1.171556 4.69411,-3.891095 4.69411,-7.573125 0,-5.062788 -3.26915,-8.535307 -8.08931,-8.535304 z m -115.13806,0.0414 c -0.2934,0 -0.50307,0.209224 -0.50307,0.502106 v 28.284697 c 0,0.292889 0.20967,0.502111 0.50307,0.502111 h 3.85593 c 0.29341,0 0.50307,-0.209222 0.50307,-0.502111 v -8.91189 c 0,-0.04184 0.0421,-0.125533 0.083,-0.251057 l 2.34774,-3.221686 c 0.12571,-0.125524 0.25107,-0.125924 0.29302,0.04145 l 6.62238,12.468717 c 0.12582,0.251048 0.33533,0.376585 0.62875,0.376585 h 4.2754 c 0.29341,0 0.41934,-0.125334 0.41934,-0.334542 0,-0.04184 -0.0426,-0.125533 -0.0838,-0.251057 l -8.50859,-16.025548 c -0.0423,-0.125524 -0.0423,-0.208815 0,-0.292499 l 7.92199,-11.757589 c 0.20966,-0.334734 0.0425,-0.627644 -0.33509,-0.627644 h -4.23331 c -0.25139,0 -0.46144,0.125933 -0.58713,0.335143 l -8.59226,12.301148 c -0.12583,0.167364 -0.25153,0.08388 -0.25153,-0.08349 V -44.40957 c 0,-0.292887 -0.20966,-0.502106 -0.50302,-0.502106 z m 23.01093,0 c -0.29341,0 -0.50291,0.209224 -0.50291,0.502106 v 28.284697 c 0,0.292889 0.2095,0.502111 0.50291,0.502111 h 3.81394 c 0.29344,0 0.50295,-0.209222 0.50295,-0.502111 l -0.0425,-18.116879 c 0,-0.209207 0.20963,-0.251251 0.25152,-0.04203 l 9.22165,18.28445 c 0.12571,0.251048 0.33514,0.376584 0.58665,0.376584 h 3.85594 c 0.29342,0 0.50305,-0.209223 0.50305,-0.502111 v -28.284663 c 0,-0.292889 -0.20963,-0.502106 -0.50305,-0.502106 h -3.81378 c -0.29343,0 -0.50307,0.209217 -0.50307,0.502106 v 18.033397 c 0,0.209208 -0.2095,0.251248 -0.25149,0.04205 L 158.7169,-44.53508 c -0.12582,-0.251055 -0.29323,-0.376583 -0.58665,-0.376583 z m 32.86024,0 c -0.29343,0 -0.50243,0.209224 -0.50243,0.502106 v 28.284697 c 0,0.292889 0.209,0.502111 0.50243,0.502111 h 3.85654 c 0.29342,0 0.50307,-0.209222 0.50307,-0.502111 v -18.912093 c 0,-0.209199 0.2095,-0.251243 0.25144,-0.04203 l 3.98183,7.699258 c 0.12571,0.251049 0.33514,0.376584 0.58654,0.376584 h 1.38322 c 0.29343,0 0.46096,-0.125535 0.58664,-0.376584 l 3.98177,-7.657212 c 0.0423,-0.2092 0.25152,-0.167168 0.25152,0.04203 v 18.870047 c 0,0.292889 0.20954,0.502111 0.50294,0.502111 h 3.85603 c 0.29342,0 0.50303,-0.209222 0.50303,-0.502111 v -28.284654 c 0,-0.292889 -0.20961,-0.502107 -0.50303,-0.502107 h -3.81394 c -0.25138,0 -0.46082,0.125528 -0.58652,0.376585 l -5.36504,10.334737 c -0.0833,0.125525 -0.16766,0.125525 -0.25147,0 l -5.32348,-10.334737 c -0.1257,-0.251057 -0.29322,-0.376585 -0.58666,-0.376585 z m 26.07106,0 c -0.29344,0 -0.50309,0.209224 -0.50309,0.502106 v 28.284697 c 0,0.292889 0.20965,0.502111 0.50309,0.502111 h 3.85604 c 0.29331,0 0.50291,-0.209222 0.50291,-0.502111 v -28.284654 c 0,-0.292889 -0.2096,-0.502107 -0.50291,-0.502107 z m 10.18481,0 c -0.29334,0 -0.50299,0.209224 -0.50299,0.502106 v 28.284697 c 0,0.292889 0.20965,0.502111 0.50299,0.502111 h 3.85599 c 0.29342,0 0.50308,-0.209222 0.50308,-0.502111 v -8.91189 c 0,-0.04184 0.0421,-0.125533 0.083,-0.251057 l 2.34772,-3.221686 c 0.12571,-0.125524 0.25103,-0.125924 0.29298,0.04145 l 6.62242,12.468717 c 0.12575,0.251048 0.33535,0.376585 0.62876,0.376585 h 4.2754 c 0.29342,0 0.41935,-0.125334 0.41935,-0.334542 0,-0.04184 -0.0427,-0.125533 -0.0837,-0.251057 l -8.50861,-16.025548 c -0.0423,-0.125524 -0.0423,-0.208815 0,-0.292499 l 7.92202,-11.757589 c 0.20964,-0.334734 0.0425,-0.627644 -0.33513,-0.627644 h -4.23327 c -0.25151,0 -0.46145,0.125933 -0.58715,0.335143 l -8.59236,12.301148 c -0.12574,0.167364 -0.25142,0.08388 -0.25142,-0.08349 V -44.40957 c 0,-0.292887 -0.20966,-0.502106 -0.50308,-0.502106 z m 68.32005,0 c -0.29334,0 -0.50293,0.209224 -0.50293,0.502106 v 28.284697 c 0,0.292889 0.20959,0.502111 0.50293,0.502111 h 8.92746 c 5.23919,0 8.84433,-2.844879 8.84433,-8.033194 0,-3.305455 -1.25771,-5.606764 -3.81443,-6.987525 -0.12583,-0.08367 -0.0836,-0.167374 0.0425,-0.251058 2.26331,-1.213392 3.39508,-3.221786 3.39508,-6.108829 0,-5.230153 -3.3117,-7.908266 -8.97013,-7.908266 z m 22.71742,0 c -0.29339,0 -0.50292,0.209224 -0.50292,0.502106 v 28.284697 c 0,0.292889 0.20953,0.502111 0.50292,0.502111 h 3.85603 c 0.29345,0 0.50303,-0.209222 0.50303,-0.502111 v -28.284654 c 0,-0.292889 -0.20958,-0.502107 -0.50303,-0.502107 z m -37.34553,3.849327 c 2.72447,0 4.52691,1.924863 4.52691,4.770068 v 12.134201 c 0,2.803362 -1.80244,4.728022 -4.52691,4.728022 -2.68244,0 -4.44257,-1.92466 -4.44257,-4.728022 v -12.13416 c 0,-2.845205 1.76013,-4.770066 4.44257,-4.770066 z m -26.11252,0.293098 h 4.40107 c 2.34725,0 3.9397,1.757085 3.9397,4.434926 0,2.635995 -1.59245,4.309991 -3.9397,4.309991 h -4.40107 c -0.12568,0 -0.20943,-0.08409 -0.20943,-0.209614 v -8.326294 c 0,-0.125518 0.0838,-0.209009 0.20943,-0.209009 z m 45.30903,0.04204 h 3.89817 c 2.64063,0 4.19114,1.505819 4.19114,4.141825 0,2.552313 -1.55051,4.058937 -4.19114,4.058937 h -3.89817 c -0.12569,0 -0.20929,-0.0835 -0.20929,-0.209015 v -7.782728 c 0,-0.12553 0.083,-0.209011 0.20929,-0.209011 z m 0,11.966602 h 4.1497 c 2.55672,0 4.19116,1.673606 4.19116,4.476968 0,2.803362 -1.59234,4.434922 -4.14907,4.434922 h -4.19179 c -0.12569,0 -0.20929,-0.08349 -0.20929,-0.209011 v -8.493852 c 0,-0.125525 0.083,-0.209014 0.20929,-0.209014 z"
           id="path22086" />
        <path
           style="color:#000000;fill:#000000;stroke-width:19.6;stroke-linecap:round;stroke-linejoin:round;-inkscape-stroke:none;paint-order:markers stroke fill"
           d="m 89.752315,43.753783 h 2 v -98 h -1.999996 z"
           id="path22092" />
        <text
           xml:space="preserve"
           style="font-size:33.2594px;line-height:1.25;font-family:Calibri;-inkscape-font-specification:Calibri;letter-spacing:0px;word-spacing:0px;stroke-width:2.59291"
           x="106.62371"
           y="28.301449"
           id="text5655"><tspan
             sodipodi:role="line"
             style="font-style:normal;font-variant:normal;font-weight:600;font-stretch:semi-condensed;font-family:'Barlow Semi Condensed';-inkscape-font-specification:'Barlow Semi Condensed,  Semi-Bold Semi-Condensed';stroke-width:2.59291"
             x="106.62371"
             y="28.301449"
             id="tspan1000">Sumator 1</tspan></text>
      </g>
    </g>
  </g>
</svg>
